{
  "root": "apps/lib-export-react",
  "sourceRoot": "apps/lib-export-react/src",
  "projectType": "application",
  "targets": {
    "build": {
      "executor": "@nrwl/web:webpack",
      "outputs": ["{options.outputPath}"],
      "defaultConfiguration": "production",
      "options": {
        "compiler": "babel",
        "outputPath": "dist/apps/lib-export-react",
        "index": "apps/lib-export-react/src/index.html",
        "baseHref": "/",
        "main": "apps/lib-export-react/src/main.tsx",
        "polyfills": "apps/lib-export-react/src/polyfills.ts",
        "tsConfig": "apps/lib-export-react/tsconfig.app.json",
        "assets": [
          "apps/lib-export-react/src/favicon.ico",
          "apps/lib-export-react/src/assets"
        ],
        "styles": ["apps/lib-export-react/src/styles.scss"],
        "scripts": [],
        "webpackConfig": "@nrwl/react/plugins/webpack"
      },
      "configurations": {
        "production": {
          "fileReplacements": [
            {
              "replace": "apps/lib-export-react/src/environments/environment.ts",
              "with": "apps/lib-export-react/src/environments/environment.prod.ts"
            }
          ],
          "optimization": true,
          "outputHashing": "all",
          "sourceMap": false,
          "namedChunks": false,
          "extractLicenses": true,
          "vendorChunk": false
        }
      }
    },
    "serve": {
      "executor": "@nrwl/web:dev-server",
      "options": {
        "buildTarget": "lib-export-react:build",
        "hmr": true
      },
      "configurations": {
        "production": {
          "buildTarget": "lib-export-react:build:production",
          "hmr": false
        }
      }
    },
    "lint": {
      "executor": "@nrwl/linter:eslint",
      "outputs": ["{options.outputFile}"],
      "options": {
        "lintFilePatterns": ["apps/lib-export-react/**/*.{ts,tsx,js,jsx}"]
      }
    },
    "test": {
      "executor": "@nrwl/jest:jest",
      "outputs": ["coverage/apps/lib-export-react"],
      "options": {
        "jestConfig": "apps/lib-export-react/jest.config.js",
        "passWithNoTests": true
      }
    },
    "storybook": {
      "executor": "@nrwl/storybook:storybook",
      "options": {
        "uiFramework": "@storybook/react",
        "port": 4400,
        "config": {
          "configFolder": "apps/lib-export-react/.storybook"
        }
      },
      "configurations": {
        "ci": {
          "quiet": true
        }
      }
    },
    "build-storybook": {
      "executor": "@nrwl/storybook:build",
      "outputs": ["{options.outputPath}"],
      "options": {
        "uiFramework": "@storybook/react",
        "outputPath": "dist/storybook/lib-export-react",
        "config": {
          "configFolder": "apps/lib-export-react/.storybook"
        }
      },
      "configurations": {
        "ci": {
          "quiet": true
        }
      }
    }
  },
  "tags": []
}
